{"pageProps":{"postList":[{"id":"202302260810","title":"Docker容器","date":"2023-02-26 08:10:08","cover":null,"category":["编程"]},{"id":"202302232022","title":"HTML和CSS","date":"2023-02-23 20:22:25","cover":null,"category":["编程"]},{"id":"202302231926","title":"Git相关","date":"2023-02-23 19:26:48","cover":null,"category":["编程"]},{"id":"202302220303","title":"HTTP请求头","date":"2023-02-22 03:03:10","cover":null,"category":["编程"]},{"id":"202302202035","title":"Debian服务器","date":"2023-02-20 20:35:44","cover":null,"category":["编程"]}],"totalPage":3,"totalCount":13,"page":"2"},"__N_SSG":true}