{"pageProps":{"postList":[{"id":"202302200014","title":"Linux和Mac常用命令","date":"2023-02-20 00:14:32","cover":null,"category":["编程"]},{"id":"202302190723","title":"搭建hexo和butterfly","date":"2023-02-19 07:23:02","cover":null,"category":["编程"]},{"id":"202302190038","title":"hello-world","date":"2023-02-19 00:38:39","cover":null,"category":["编程"]}],"totalPage":3,"totalCount":13,"page":"3"},"__N_SSG":true}