{"pageProps":{"postList":[{"id":"202303032122","title":"Next-js笔记","date":"2023-03-03 21:22:02","cover":null,"category":[]},{"id":"202303030845","title":"Vue笔记","date":"2023-03-03 08:45:52","cover":null,"category":[]},{"id":"202303030825","title":"React笔记","date":"2023-03-03 08:25:15","cover":null,"category":[]},{"id":"202303011226","title":"正则表达式","date":"2023-03-01 12:26:51","cover":null,"category":["编程"]},{"id":"202302280401","title":"在Docker中部署Python-Flask服务器","date":"2023-02-28 04:01:58","cover":null,"category":["编程"]}],"totalPage":3,"totalCount":13,"page":1},"__N_SSG":true}